{
  "version": "0.3.14-fixed",
  "steps": [
    {
      "tag": "CreateModel",
      "model": "CredsProp"
    },
    {
      "tag": "CreateField",
      "model": "CredsProp",
      "field": "rowid",
      "type": "Int",
      "arity": "Required"
    },
    {
      "tag": "CreateDirective",
      "location": {
        "path": {
          "tag": "Field",
          "model": "CredsProp",
          "field": "rowid"
        },
        "directive": "default"
      }
    },
    {
      "tag": "CreateArgument",
      "location": {
        "tag": "Directive",
        "path": {
          "tag": "Field",
          "model": "CredsProp",
          "field": "rowid"
        },
        "directive": "default"
      },
      "argument": "",
      "value": "autoincrement()"
    },
    {
      "tag": "CreateDirective",
      "location": {
        "path": {
          "tag": "Field",
          "model": "CredsProp",
          "field": "rowid"
        },
        "directive": "id"
      }
    },
    {
      "tag": "CreateField",
      "model": "CredsProp",
      "field": "username",
      "type": "String",
      "arity": "Required"
    },
    {
      "tag": "CreateField",
      "model": "CredsProp",
      "field": "password",
      "type": "String",
      "arity": "Required"
    },
    {
      "tag": "CreateField",
      "model": "CredsProp",
      "field": "ctf",
      "type": "CtfProps",
      "arity": "Required"
    },
    {
      "tag": "CreateDirective",
      "location": {
        "path": {
          "tag": "Field",
          "model": "CredsProp",
          "field": "ctf"
        },
        "directive": "relation"
      }
    },
    {
      "tag": "CreateArgument",
      "location": {
        "tag": "Directive",
        "path": {
          "tag": "Field",
          "model": "CredsProp",
          "field": "ctf"
        },
        "directive": "relation"
      },
      "argument": "fields",
      "value": "[ctfId]"
    },
    {
      "tag": "CreateArgument",
      "location": {
        "tag": "Directive",
        "path": {
          "tag": "Field",
          "model": "CredsProp",
          "field": "ctf"
        },
        "directive": "relation"
      },
      "argument": "references",
      "value": "[rowid]"
    },
    {
      "tag": "CreateField",
      "model": "CredsProp",
      "field": "ctfId",
      "type": "Int",
      "arity": "Required"
    },
    {
      "tag": "CreateDirective",
      "location": {
        "path": {
          "tag": "Field",
          "model": "CredsProp",
          "field": "ctfId"
        },
        "directive": "unique"
      }
    }
  ]
}